%YAML 1.1
%TAG !u! tag:unity3d.com,2011:
--- !u!78 &1
TagManager:
  serializedVersion: 2
  tags:
  - EndPoint
  - GetHitableFromThis
  - TrapBoundary
  layers:
  - Default
  - TransparentFX
  - Ignore Raycast
  - 
  - Water
  - UI
  - 
  - 
  - Trap
  - Character
  - PowerUp
  - 
  - 
  - 
  - 
  - 
  - 
  - 
  - 
  - 
  - 
  - 
  - 
  - 
  - 
  - 
  - 
  - 
  - 
  - 
  - 
  - 
  m_SortingLayers:
  - name: Background
    uniqueID: 2376654355
    locked: 0
  - name: Default
    uniqueID: 0
    locked: 0
  - name: Trap
    uniqueID: 3450023619
    locked: 0
  - name: Character
    uniqueID: 530035733
    locked: 0
  - name: UI
    uniqueID: 2260181235
    locked: 0
