%YAML 1.1
%TAG !u! tag:unity3d.com,2011:
--- !u!162 &1
EditorUserSettings:
  m_ObjectHideFlags: 0
  serializedVersion: 4
  m_ConfigSettings:
    RecentlyUsedSceneGuid-0:
      value: 07030d5001025c0b5b5f5c2040215c44174e487d7e7d24607c714e62b7b1326e
      flags: 0
    RecentlyUsedSceneGuid-1:
      value: 050755535c510a095a5f092042745c44144f40727a797f327c784461b1e1626e
      flags: 0
    RecentlyUsedSceneGuid-2:
      value: 5657065101020f5d5c5f552140760b44124f197c7478773675704d30e7e3353c
      flags: 0
    RecentlyUsedSceneGuid-3:
      value: 02020157070050580c5b582340215c44464f4b297f7d7e64792d1c62b1e16269
      flags: 0
    RecentlyUsedSceneGuid-4:
      value: 5550060701065c085e5c5924162609444f4f4b297e70226674284564b1b8326d
      flags: 0
    RecentlyUsedSceneGuid-5:
      value: 0204525104005f5f5e5d5526117b0b44424e4073752d2536747c1b31e7b3673c
      flags: 0
    RecentlyUsedSceneGuid-6:
      value: 5301525700050f0d0f570e7b47770741131640797a2e2736787d1830b5e16268
      flags: 0
    RecentlyUsedSceneGuid-7:
      value: 57010c055251580b5c0f5c7044745e44404e1b2c7a7977347b711c6bb6e4646b
      flags: 0
    RecentlyUsedSceneGuid-8:
      value: 5a015651530158090e0c0f75147a0d44464e482c7f7f7632782f4f35b2e5303a
      flags: 0
    RecentlyUsedSceneGuid-9:
      value: 050057035c0208020f080a2344270b441516487b7d297366797b4836e4e36761
      flags: 0
    RecentlyUsedScenePath-0:
      value: 2242470311464676143d0f271e264c5f25031938381827372867083debf42d
      flags: 0
    RecentlyUsedScenePath-1:
      value: 2242470311464676143d0f271e264c5f3116152f623d28393930
      flags: 0
    UnityRemoteDevice:
      value: 225f4d46245b0d4902070862342649191512
      flags: 0
    UnityRemoteResolution:
      value: 275e4308165c135e
      flags: 0
    vcSharedLogLevel:
      value: 0d5e400f0650
      flags: 0
  m_VCAutomaticAdd: 1
  m_VCDebugCom: 0
  m_VCDebugCmd: 0
  m_VCDebugOut: 0
  m_SemanticMergeMode: 2
  m_DesiredImportWorkerCount: 4
  m_StandbyImportWorkerCount: 2
  m_IdleImportWorkerShutdownDelay: 60000
  m_VCShowFailedCheckout: 1
  m_VCOverwriteFailedCheckoutAssets: 1
  m_VCProjectOverlayIcons: 1
  m_VCHierarchyOverlayIcons: 1
  m_VCOtherOverlayIcons: 1
  m_VCAllowAsyncUpdate: 0
  m_ArtifactGarbageCollection: 1
