%YAML 1.1
%TAG !u! tag:unity3d.com,2011:
--- !u!114 &11400000
MonoBehaviour:
  m_ObjectHideFlags: 0
  m_CorrespondingSourceObject: {fileID: 0}
  m_PrefabInstance: {fileID: 0}
  m_PrefabAsset: {fileID: 0}
  m_GameObject: {fileID: 0}
  m_Enabled: 1
  m_EditorHideFlags: 0
  m_Script: {fileID: 11500000, guid: 1cf646ae92125654ead83a9fea97f59f, type: 3}
  m_Name: AuthData
  m_EditorClassIdentifier: 
  PreloadAccountInfo: 1
  PreloadLevelData: 1
  PreloadCurrency: 1
  PreloadStatistics: 1
  PreloadInventory: 1
  PreloadUserData: 1
  PreloadTitleData: 1
  PreloadClan: 1
  AutoGenerateRandomNickname: 1
  RandomNamePrefix: Player_
  AutoLogin: 0
  DisplayNameProfanityCheck: 0
  DeviceIdProvider: 1
